<?xml version="1.0" encoding="UTF-8" standalone="no"?>
<!-- Created with Inkscape (http://www.inkscape.org/) -->

<svg
   xmlns:dc="http://purl.org/dc/elements/1.1/"
   xmlns:cc="http://creativecommons.org/ns#"
   xmlns:rdf="http://www.w3.org/1999/02/22-rdf-syntax-ns#"
   xmlns:svg="http://www.w3.org/2000/svg"
   xmlns="http://www.w3.org/2000/svg"
   xmlns:xlink="http://www.w3.org/1999/xlink"
   xmlns:sodipodi="http://sodipodi.sourceforge.net/DTD/sodipodi-0.dtd"
   xmlns:inkscape="http://www.inkscape.org/namespaces/inkscape"
   width="182.33707mm"
   height="52.705784mm"
   viewBox="0 0 182.33707 52.705784"
   version="1.1"
   id="svg8"
   sodipodi:docname="drawing.svg"
   inkscape:version="0.92.5 (2060ec1f9f, 2020-04-08)">
  <defs
     id="defs2">
    <marker
       inkscape:isstock="true"
       style="overflow:visible"
       id="marker1344"
       refX="0"
       refY="0"
       orient="auto"
       inkscape:stockid="Arrow1Mend">
      <path
         transform="matrix(-0.4,0,0,-0.4,-4,0)"
         style="fill:#000000;fill-opacity:1;fill-rule:evenodd;stroke:#000000;stroke-width:1.00000003pt;stroke-opacity:1"
         d="M 0,0 5,-5 -12.5,0 5,5 Z"
         id="path1342"
         inkscape:connector-curvature="0" />
    </marker>
    <marker
       inkscape:stockid="Arrow1Mend"
       orient="auto"
       refY="0"
       refX="0"
       id="Arrow1Mend"
       style="overflow:visible"
       inkscape:isstock="true"
       inkscape:collect="always">
      <path
         id="path991"
         d="M 0,0 5,-5 -12.5,0 5,5 Z"
         style="fill:#000000;fill-opacity:1;fill-rule:evenodd;stroke:#000000;stroke-width:1.00000003pt;stroke-opacity:1"
         transform="matrix(-0.4,0,0,-0.4,-4,0)"
         inkscape:connector-curvature="0" />
    </marker>
    <marker
       inkscape:isstock="true"
       style="overflow:visible"
       id="marker1272"
       refX="0"
       refY="0"
       orient="auto"
       inkscape:stockid="Arrow1Lend">
      <path
         transform="matrix(-0.8,0,0,-0.8,-10,0)"
         style="fill:#000000;fill-opacity:1;fill-rule:evenodd;stroke:#000000;stroke-width:1.00000003pt;stroke-opacity:1"
         d="M 0,0 5,-5 -12.5,0 5,5 Z"
         id="path1270"
         inkscape:connector-curvature="0" />
    </marker>
    <linearGradient
       inkscape:collect="always"
       id="linearGradient906">
      <stop
         id="stop904"
         offset="0"
         style="stop-color:#ffffff;stop-opacity:0.0041841" />
      <stop
         id="stop902"
         offset="1"
         style="stop-color:#fc0000;stop-opacity:1" />
    </linearGradient>
    <radialGradient
       inkscape:collect="always"
       xlink:href="#linearGradient906"
       id="radialGradient908"
       cx="146.45544"
       cy="117.96339"
       fx="146.45544"
       fy="117.96339"
       r="14.817426"
       gradientTransform="matrix(4.2374852,-0.08598848,0.03517469,1.8069093,-477.78189,-82.459699)"
       gradientUnits="userSpaceOnUse" />
    <radialGradient
       inkscape:collect="always"
       xlink:href="#linearGradient906"
       id="radialGradient959"
       gradientUnits="userSpaceOnUse"
       gradientTransform="matrix(4.2374852,-0.08598848,0.03517469,1.8069093,-477.78189,-82.459699)"
       cx="146.45544"
       cy="117.96339"
       fx="146.45544"
       fy="117.96339"
       r="14.817426" />
  </defs>
  <sodipodi:namedview
     id="base"
     pagecolor="#ffffff"
     bordercolor="#666666"
     borderopacity="1.0"
     inkscape:pageopacity="0.0"
     inkscape:pageshadow="2"
     inkscape:zoom="2.8"
     inkscape:cx="228.96145"
     inkscape:cy="23.277939"
     inkscape:document-units="mm"
     inkscape:current-layer="layer1"
     showgrid="false"
     inkscape:window-width="2048"
     inkscape:window-height="1088"
     inkscape:window-x="0"
     inkscape:window-y="27"
     inkscape:window-maximized="1"
     fit-margin-top="0"
     fit-margin-left="0"
     fit-margin-right="0"
     fit-margin-bottom="0" />
  <metadata
     id="metadata5">
    <rdf:RDF>
      <cc:Work
         rdf:about="">
        <dc:format>image/svg+xml</dc:format>
        <dc:type
           rdf:resource="http://purl.org/dc/dcmitype/StillImage" />
        <dc:title />
      </cc:Work>
    </rdf:RDF>
  </metadata>
  <g
     inkscape:label="Layer 1"
     inkscape:groupmode="layer"
     id="layer1"
     transform="translate(-12.736438,-92.577627)">
    <rect
       style="opacity:1;vector-effect:none;fill:none;fill-opacity:1;stroke:#000000;stroke-width:0.185;stroke-linecap:butt;stroke-linejoin:miter;stroke-miterlimit:4;stroke-dasharray:none;stroke-dashoffset:0;stroke-opacity:1;marker:none"
       id="rect815"
       width="46.237629"
       height="46.772167"
       x="12.828938"
       y="98.418739" />
    <rect
       style="opacity:1;vector-effect:none;fill:none;fill-opacity:1;stroke:#000000;stroke-width:0.185;stroke-linecap:butt;stroke-linejoin:miter;stroke-miterlimit:4;stroke-dasharray:none;stroke-dashoffset:0;stroke-opacity:1;marker:none"
       id="rect815-3"
       width="46.237629"
       height="46.772171"
       x="65.547844"
       y="98.418739" />
    <circle
       style="opacity:1;vector-effect:none;fill:#130000;fill-opacity:1;stroke:#000000;stroke-width:0.185;stroke-linecap:butt;stroke-linejoin:miter;stroke-miterlimit:4;stroke-dasharray:none;stroke-dashoffset:0;stroke-opacity:1;marker:none"
       id="path844"
       cx="87.59758"
       cy="128.88747"
       r="1.2027128" />
    <circle
       style="opacity:1;vector-effect:none;fill:#130000;fill-opacity:1;stroke:#000000;stroke-width:0.185;stroke-linecap:butt;stroke-linejoin:miter;stroke-miterlimit:4;stroke-dasharray:none;stroke-dashoffset:0;stroke-opacity:1;marker:none"
       id="path846"
       cx="98.622437"
       cy="111.31449"
       r="0.60135639" />
    <circle
       style="opacity:1;vector-effect:none;fill:#130000;fill-opacity:1;stroke:#000000;stroke-width:0.185;stroke-linecap:butt;stroke-linejoin:miter;stroke-miterlimit:4;stroke-dasharray:none;stroke-dashoffset:0;stroke-opacity:1;marker:none"
       id="path846-7"
       cx="75.303177"
       cy="111.38132"
       r="0.60135639" />
    <g
       id="g918"
       transform="translate(-6.6817382,0.13363476)">
      <path
         inkscape:transform-center-y="1.0470435"
         inkscape:transform-center-x="-10.289878"
         sodipodi:nodetypes="sssssssss"
         inkscape:connector-curvature="0"
         id="path900"
         d="m 159.55991,109.25267 c -2.93025,-1.3839 -5.90517,0.2026 -3.46953,4.51008 1.59403,2.81907 -0.40897,7.19322 -8.95851,7.60602 -8.54954,0.4128 -9.90787,-3.48974 -9.76299,-7.07915 0,0 1.108,-6.87703 -2.79867,-5.23438 -3.90667,1.64265 -1.8868,4.53417 0.34364,6.92428 1.98739,2.12965 7.98572,17.92241 12.08439,18.11964 8.19735,0.39446 8.04098,-12.31106 11.24761,-18.06804 0,0 4.24431,-5.39455 1.31406,-6.77845 z"
         style="fill:url(#radialGradient959);fill-opacity:1;stroke:none;stroke-width:0.27992508px;stroke-linecap:butt;stroke-linejoin:miter;stroke-opacity:1" />
      <g
         id="g867-5"
         transform="translate(52.919367,-0.26727123)">
        <rect
           style="opacity:1;vector-effect:none;fill:none;fill-opacity:1;stroke:#000000;stroke-width:0.185;stroke-linecap:butt;stroke-linejoin:miter;stroke-miterlimit:4;stroke-dasharray:none;stroke-dashoffset:0;stroke-opacity:1;marker:none"
           id="rect815-3-3"
           width="46.237629"
           height="46.772171"
           x="72.029137"
           y="98.552376" />
        <circle
           style="opacity:1;vector-effect:none;fill:#130000;fill-opacity:1;stroke:#000000;stroke-width:0.185;stroke-linecap:butt;stroke-linejoin:miter;stroke-miterlimit:4;stroke-dasharray:none;stroke-dashoffset:0;stroke-opacity:1;marker:none"
           id="path844-5"
           cx="94.078873"
           cy="129.0211"
           r="1.2027128" />
        <circle
           style="opacity:1;vector-effect:none;fill:#130000;fill-opacity:1;stroke:#000000;stroke-width:0.185;stroke-linecap:butt;stroke-linejoin:miter;stroke-miterlimit:4;stroke-dasharray:none;stroke-dashoffset:0;stroke-opacity:1;marker:none"
           id="path846-6"
           cx="105.10373"
           cy="111.44813"
           r="0.60135639" />
        <circle
           style="opacity:1;vector-effect:none;fill:#130000;fill-opacity:1;stroke:#000000;stroke-width:0.185;stroke-linecap:butt;stroke-linejoin:miter;stroke-miterlimit:4;stroke-dasharray:none;stroke-dashoffset:0;stroke-opacity:1;marker:none"
           id="path846-7-2"
           cx="81.78447"
           cy="111.51495"
           r="0.60135639" />
      </g>
    </g>
    <g
       id="g964"
       transform="translate(0,0.93543971)">
      <path
         inkscape:connector-curvature="0"
         id="rect920-9"
         d="m 115.60197,114.93254 v 2.39464 h -4.89414 v 7.51827 h 4.89414 v 1.96078 l 2.56704,-2.96857 2.56718,-2.96828 -2.56718,-2.96828 z"
         style="opacity:1;vector-effect:none;fill:#333333;fill-opacity:1;stroke:#060606;stroke-width:0.07071706;stroke-linecap:butt;stroke-linejoin:miter;stroke-miterlimit:4;stroke-dasharray:none;stroke-dashoffset:0;stroke-opacity:0.98326362;marker:none" />
      <text
         id="text931-1"
         y="122.44035"
         x="113.02889"
         style="font-style:normal;font-weight:normal;font-size:4.23333311px;line-height:1.25;font-family:sans-serif;letter-spacing:0px;word-spacing:0px;fill:#000000;fill-opacity:1;stroke:none;stroke-width:0.26458332"
         xml:space="preserve"><tspan
           style="fill:#c5c5c5;fill-opacity:1;stroke-width:0.26458332"
           y="122.44035"
           x="113.02889"
           id="tspan929-2"
           sodipodi:role="line">2</tspan></text>
    </g>
    <g
       id="g970"
       transform="translate(0,1.8040683)">
      <g
         transform="translate(-2.80633,-0.80180858)"
         id="g957">
        <path
           style="opacity:1;vector-effect:none;fill:#333333;fill-opacity:1;stroke:#060606;stroke-width:0.07071705;stroke-linecap:butt;stroke-linejoin:miter;stroke-miterlimit:4;stroke-dasharray:none;stroke-dashoffset:0;stroke-opacity:0.98326362;marker:none"
           d="m 65.515049,114.86572 v 2.39464 h -4.89414 v 7.51827 h 4.89414 v 1.96078 l 2.56704,-2.96857 2.56718,-2.96828 -2.56718,-2.96828 z"
           id="rect920"
           inkscape:connector-curvature="0" />
        <text
           xml:space="preserve"
           style="font-style:normal;font-weight:normal;font-size:4.23333311px;line-height:1.25;font-family:sans-serif;letter-spacing:0px;word-spacing:0px;fill:#000000;fill-opacity:1;stroke:none;stroke-width:0.26458332"
           x="62.941971"
           y="122.34563"
           id="text931"><tspan
             sodipodi:role="line"
             id="tspan929"
             x="62.941971"
             y="122.34563"
             style="fill:#c5c5c5;fill-opacity:1;stroke-width:0.26458332">1</tspan></text>
      </g>
    </g>
    <path
       style="fill:none;stroke:#000000;stroke-width:0.26499999;stroke-linecap:butt;stroke-linejoin:miter;stroke-miterlimit:4;stroke-dasharray:0.52999997, 0.52999997;stroke-dashoffset:0;stroke-opacity:1"
       d="m 182.90268,127.66667 h 12.17083"
       id="path972"
       inkscape:connector-curvature="0"
       sodipodi:nodetypes="cc" />
    <path
       style="fill:none;stroke:#000000;stroke-width:0.26499999;stroke-linecap:butt;stroke-linejoin:miter;stroke-miterlimit:4;stroke-dasharray:none;stroke-opacity:1;marker-end:url(#marker1344)"
       d="M 186.53125,127.66667 V 100.07441"
       id="path976"
       inkscape:connector-curvature="0" />
    <path
       style="fill:none;stroke:#000000;stroke-width:0.26458332px;stroke-linecap:butt;stroke-linejoin:miter;stroke-opacity:1;marker-end:url(#Arrow1Mend)"
       d="m 191.06696,100.07441 v 41.57738"
       id="path978"
       inkscape:connector-curvature="0" />
    <path
       style="fill:none;stroke:#000000;stroke-width:0.26458332px;stroke-linecap:butt;stroke-linejoin:miter;stroke-opacity:1"
       d="m 186.53125,100.07441 h 4.53571"
       id="path1370"
       inkscape:connector-curvature="0" />
    <text
       xml:space="preserve"
       style="font-style:normal;font-weight:normal;font-size:4.23333311px;line-height:1.25;font-family:sans-serif;letter-spacing:0px;word-spacing:0px;fill:#000000;fill-opacity:1;stroke:none;stroke-width:0.26458332"
       x="-133.40968"
       y="179.40154"
       id="text1374"
       transform="rotate(-90)"><tspan
         sodipodi:role="line"
         id="tspan1372"
         x="-133.40968"
         y="179.40154"
         style="stroke-width:0.26458332">energy</tspan></text>
    <text
       xml:space="preserve"
       style="font-style:normal;font-variant:normal;font-weight:normal;font-stretch:normal;font-size:4.23333311px;line-height:1.25;font-family:sans-serif;font-variant-ligatures:normal;font-variant-position:normal;font-variant-caps:normal;font-variant-numeric:normal;font-variant-alternates:normal;font-feature-settings:normal;text-indent:0;text-align:center;text-decoration:none;text-decoration-line:none;text-decoration-style:solid;text-decoration-color:#000000;letter-spacing:0px;word-spacing:0px;text-transform:none;writing-mode:lr-tb;direction:ltr;text-orientation:mixed;dominant-baseline:auto;baseline-shift:baseline;text-anchor:middle;white-space:normal;shape-padding:0;opacity:1;vector-effect:none;fill:#000000;fill-opacity:1;stroke:none;stroke-width:0.26458332;stroke-linecap:butt;stroke-linejoin:miter;stroke-miterlimit:4;stroke-dasharray:none;stroke-dashoffset:0;stroke-opacity:1"
       x="88.736938"
       y="95.793968"
       id="text1378"><tspan
         sodipodi:role="line"
         id="tspan1376"
         x="88.736938"
         y="95.793968"
         style="font-style:normal;font-variant:normal;font-weight:normal;font-stretch:normal;font-size:4.23333311px;line-height:1.25;font-family:sans-serif;font-variant-ligatures:normal;font-variant-position:normal;font-variant-caps:normal;font-variant-numeric:normal;font-variant-alternates:normal;font-feature-settings:normal;text-indent:0;text-align:center;text-decoration:none;text-decoration-line:none;text-decoration-style:solid;text-decoration-color:#000000;letter-spacing:0px;word-spacing:0px;text-transform:none;writing-mode:lr-tb;direction:ltr;text-orientation:mixed;dominant-baseline:auto;baseline-shift:baseline;text-anchor:middle;white-space:normal;shape-padding:0;vector-effect:none;fill:#000000;fill-opacity:1;stroke:none;stroke-width:0.26458332;stroke-linecap:butt;stroke-linejoin:miter;stroke-miterlimit:4;stroke-dasharray:none;stroke-dashoffset:0;stroke-opacity:1">add nuclei</tspan></text>
    <text
       xml:space="preserve"
       style="font-style:normal;font-weight:normal;font-size:4.23333311px;line-height:1.25;font-family:sans-serif;letter-spacing:0px;word-spacing:0px;fill:#000000;fill-opacity:1;stroke:none;stroke-width:0.26458332"
       x="141.36284"
       y="95.793968"
       id="text1378-9"><tspan
         sodipodi:role="line"
         id="tspan1376-3"
         x="141.36284"
         y="95.793968"
         style="text-align:center;text-anchor:middle;stroke-width:0.26458332">add electrons</tspan></text>
    <text
       xml:space="preserve"
       style="font-style:normal;font-weight:normal;font-size:4.23333311px;line-height:1.25;font-family:sans-serif;letter-spacing:0px;word-spacing:0px;fill:#000000;fill-opacity:1;stroke:none;stroke-width:0.26458332"
       x="183.12946"
       y="114.05952"
       id="text1406"><tspan
         sodipodi:role="line"
         id="tspan1404"
         x="183.12946"
         y="114.05952"
         style="stroke-width:0.26458332">1</tspan></text>
    <text
       xml:space="preserve"
       style="font-style:normal;font-weight:normal;font-size:4.23333311px;line-height:1.25;font-family:sans-serif;letter-spacing:0px;word-spacing:0px;fill:#000000;fill-opacity:1;stroke:none;stroke-width:0.26458332"
       x="192.01192"
       y="114.05952"
       id="text1410"><tspan
         sodipodi:role="line"
         id="tspan1408"
         x="192.01192"
         y="114.05952"
         style="stroke-width:0.26458332">2</tspan></text>
    <text
       xml:space="preserve"
       style="font-style:normal;font-variant:normal;font-weight:normal;font-stretch:normal;font-size:7.05555534px;line-height:1.25;font-family:Carlito;-inkscape-font-specification:'Carlito, Normal';font-variant-ligatures:normal;font-variant-caps:normal;font-variant-numeric:normal;font-feature-settings:normal;text-align:start;letter-spacing:0px;word-spacing:0px;writing-mode:lr-tb;text-anchor:start;fill:#000000;fill-opacity:1;stroke:none;stroke-width:0.26458332"
       x="71.984207"
       y="112.06861"
       id="text900"><tspan
         sodipodi:role="line"
         id="tspan898"
         x="71.984207"
         y="112.06861"
         style="font-style:normal;font-variant:normal;font-weight:bold;font-stretch:normal;font-size:2.11666656px;font-family:Carlito;-inkscape-font-specification:'Carlito Bold';fill:#0000ff;stroke-width:0.26458332">+1</tspan></text>
    <text
       xml:space="preserve"
       style="font-style:normal;font-variant:normal;font-weight:normal;font-stretch:normal;font-size:7.05555534px;line-height:1.25;font-family:Carlito;-inkscape-font-specification:'Carlito, Normal';font-variant-ligatures:normal;font-variant-caps:normal;font-variant-numeric:normal;font-feature-settings:normal;text-align:start;letter-spacing:0px;word-spacing:0px;writing-mode:lr-tb;text-anchor:start;fill:#000000;fill-opacity:1;stroke:none;stroke-width:0.26458332"
       x="99.856552"
       y="112.00179"
       id="text900-3"><tspan
         sodipodi:role="line"
         id="tspan898-6"
         x="99.856552"
         y="112.00179"
         style="font-style:normal;font-variant:normal;font-weight:bold;font-stretch:normal;font-size:2.11666656px;font-family:Carlito;-inkscape-font-specification:'Carlito Bold';fill:#0000ff;stroke-width:0.26458332">+1</tspan></text>
    <text
       xml:space="preserve"
       style="font-style:normal;font-variant:normal;font-weight:normal;font-stretch:normal;font-size:7.05555534px;line-height:1.25;font-family:Carlito;-inkscape-font-specification:'Carlito, Normal';font-variant-ligatures:normal;font-variant-caps:normal;font-variant-numeric:normal;font-feature-settings:normal;text-align:start;letter-spacing:0px;word-spacing:0px;writing-mode:lr-tb;text-anchor:start;fill:#000000;fill-opacity:1;stroke:none;stroke-width:0.26458332"
       x="86.546478"
       y="132.74155"
       id="text900-7"><tspan
         sodipodi:role="line"
         id="tspan898-5"
         x="86.546478"
         y="132.74155"
         style="font-style:normal;font-variant:normal;font-weight:bold;font-stretch:normal;font-size:2.11666656px;font-family:Carlito;-inkscape-font-specification:'Carlito Bold';fill:#0000ff;stroke-width:0.26458332">+8</tspan></text>
  </g>
</svg>
