%!PS-Adobe-3.0 EPSF-3.0
%%Creator: G2
%CreationDate: Mon Sep 28 13:14:13 2020
%%Orientation: portrait
%%BoundingBox: 0 0 70 70
%%EndComments
%%BeginProlog
/mpldict 7 dict def
mpldict begin
/m { moveto } bind def
/l { lineto } bind def
/r { rlineto } bind def
/c { curveto } bind def
/cl { closepath } bind def
/box {
m
1 index 0 r
0 exch r
neg 0 r
cl
} bind def
/clipbox {
box
clip
newpath
} bind def
%%EndProlog
mpldict begin
70 70 0 0 clipbox
1.000 setlinewidth
0 setlinejoin
0 setlinecap
[] 0 setdash
0.000 setgray
gsave
45.939569 53.441642 m
47.583828 53.441642 49.160964 54.094913 50.323631 55.25758 c
51.486298 56.420247 52.139569 57.997383 52.139569 59.641642 c
52.139569 61.285901 51.486298 62.863037 50.323631 64.025704 c
49.160964 65.188371 47.583828 65.841642 45.939569 65.841642 c
44.295309 65.841642 42.718173 65.188371 41.555507 64.025704 c
40.39284 62.863037 39.739569 61.285901 39.739569 59.641642 c
39.739569 57.997383 40.39284 56.420247 41.555507 55.25758 c
42.718173 54.094913 44.295309 53.441642 45.939569 53.441642 c
cl
gsave
1.000 setgray
fill
grestore
stroke
grestore
gsave
47.299659 17.62594 m
48.943918 17.62594 50.521054 18.279211 51.683721 19.441878 c
52.846388 20.604545 53.499659 22.181681 53.499659 23.82594 c
53.499659 25.470199 52.846388 27.047335 51.683721 28.210002 c
50.521054 29.372669 48.943918 30.02594 47.299659 30.02594 c
45.655399 30.02594 44.078263 29.372669 42.915597 28.210002 c
41.75293 27.047335 41.099659 25.470199 41.099659 23.82594 c
41.099659 22.181681 41.75293 20.604545 42.915597 19.441878 c
44.078263 18.279211 45.655399 17.62594 47.299659 17.62594 c
cl
gsave
1.000 setgray
fill
grestore
stroke
grestore
gsave
15.910213 34.378841 m
17.554472 34.378841 19.131608 35.032112 20.294275 36.194779 c
21.456942 37.357445 22.110213 38.934581 22.110213 40.578841 c
22.110213 42.2231 21.456942 43.800236 20.294275 44.962903 c
19.131608 46.125569 17.554472 46.778841 15.910213 46.778841 c
14.265954 46.778841 12.688818 46.125569 11.526151 44.962903 c
10.363484 43.800236 9.710213 42.2231 9.710213 40.578841 c
9.710213 38.934581 10.363484 37.357445 11.526151 36.194779 c
12.688818 35.032112 14.265954 34.378841 15.910213 34.378841 c
cl
gsave
1.000 setgray
fill
grestore
stroke
grestore
gsave
36.64365 26.237047 m
40.674737 26.237047 44.541264 27.838615 47.391673 30.689024 c
50.242082 33.539433 51.84365 37.40596 51.84365 41.437047 c
51.84365 45.468134 50.242082 49.334661 47.391673 52.18507 c
44.541264 55.035479 40.674737 56.637047 36.64365 56.637047 c
32.612563 56.637047 28.746036 55.035479 25.895627 52.18507 c
23.045218 49.334661 21.44365 45.468134 21.44365 41.437047 c
21.44365 37.40596 23.045218 33.539433 25.895627 30.689024 c
28.746036 27.838615 32.612563 26.237047 36.64365 26.237047 c
cl
gsave
0.565 setgray
fill
grestore
stroke
grestore
gsave
35.725552 28.497045 m
39.226233 28.497045 42.584006 29.887881 45.059362 32.363236 c
47.534717 34.838591 48.925552 38.196364 48.925552 41.697045 c
48.925552 45.197726 47.534717 48.5555 45.059362 51.030855 c
42.584006 53.50621 39.226233 54.897045 35.725552 54.897045 c
32.224871 54.897045 28.867098 53.50621 26.391743 51.030855 c
23.916387 48.5555 22.525552 45.197726 22.525552 41.697045 c
22.525552 38.196364 23.916387 34.838591 26.391743 32.363236 c
28.867098 29.887881 32.224871 28.497045 35.725552 28.497045 c
cl
gsave
1.000 0.051 0.051 setrgbcolor
fill
grestore
stroke
grestore
gsave
53.818421 36.255418 m
55.46268 36.255418 57.039816 36.908689 58.202483 38.071356 c
59.36515 39.234023 60.018421 40.811159 60.018421 42.455418 c
60.018421 44.099677 59.36515 45.676813 58.202483 46.83948 c
57.039816 48.002147 55.46268 48.655418 53.818421 48.655418 c
52.174162 48.655418 50.597026 48.002147 49.434359 46.83948 c
48.271692 45.676813 47.618421 44.099677 47.618421 42.455418 c
47.618421 40.811159 48.271692 39.234023 49.434359 38.071356 c
50.597026 36.908689 52.174162 36.255418 53.818421 36.255418 c
cl
gsave
1.000 setgray
fill
grestore
stroke
grestore
end
showpage
